^C:\USERS\ADMIN\DESKTOP\DOC\C++ COURSE\STACK\STACKEXERCISE\X64\DEBUG\INTSTACK.OBJ|C:\USERS\ADMIN\DESKTOP\DOC\C++ COURSE\STACK\STACKEXERCISE\X64\DEBUG\MAIN.OBJ
C:\USERS\ADMIN\DESKTOP\DOC\C++ COURSE\STACK\X64\DEBUG\STACKEXERCISE.ILK
C:\USERS\ADMIN\DESKTOP\DOC\C++ COURSE\STACK\X64\DEBUG\STACKEXERCISE.EXE
C:\USERS\ADMIN\DESKTOP\DOC\C++ COURSE\STACK\X64\DEBUG\STACKEXERCISE.PDB
